<?xml version="1.0" encoding="iso-8859-1"?>
<!-- Generator: Adobe Illustrator 19.0.0, SVG Export Plug-In . SVG Version: 6.00 Build 0)  -->
<svg version="1.1" id="Layer_1" xmlns="http://www.w3.org/2000/svg" xmlns:xlink="http://www.w3.org/1999/xlink" x="0px" y="0px"
	 viewBox="0 0 512 512" style="enable-background:new 0 0 512 512;" xml:space="preserve">
<g transform="translate(1 1)">
	<path style="fill:#FFE100;" d="M442.854,220.867c0-18.773-15.36-34.133-34.133-34.133s-34.133,15.36-34.133,34.133V178.2
		c0-18.773-15.36-34.133-34.133-34.133s-34.133,15.36-34.133,34.133l0,0l0,0V41.667c0-18.773-15.36-34.133-34.133-34.133l0,0
		c-18.773,0-34.133,15.36-34.133,34.133V178.2v-17.067c0-18.773-15.36-34.133-34.133-34.133l0,0
		c-18.773,0-34.133,15.36-34.133,34.133v102.4l-15.36-23.04c-17.067-29.867-58.027-43.52-85.333-33.28
		c-4.267,0.853-6.827,3.413-10.24,5.12c-10.24,6.827-8.533,14.507-8.533,17.067s48.64,52.053,76.8,102.4
		c0,0,24.747,40.96,51.2,68.267v25.6c0,42.667,34.133,76.8,76.8,76.8h85.333c33.28,0,67.413-28.16,75.093-60.587
		c1.707-7.68,5.12-18.773,10.24-24.747c7.68-8.533,17.067-29.867,17.067-59.733V220.867z"/>
	<g>
		<path style="fill:#FFFFFF;" d="M203.921,425.667v-25.6c-26.453-27.307-51.2-68.267-51.2-68.267
			c-28.16-50.347-76.8-99.84-76.8-102.4s-1.707-10.24,8.533-17.067c3.413-1.707,5.973-4.267,10.24-5.12
			c2.56-0.853,5.12-1.707,7.68-1.707c-11.947-2.56-23.04-1.707-33.28,1.707c-4.267,0.853-6.827,3.413-10.24,5.12
			c-10.24,6.827-8.533,14.507-8.533,17.067s48.64,52.053,76.8,102.4c0,0,24.747,40.96,51.2,68.267v25.6
			c0,19.627,8.533,68.267,51.2,68.267h25.6C212.454,493.933,203.921,468.333,203.921,425.667"/>
		<path style="fill:#FFFFFF;" d="M180.027,283.16l15.36,23.04V161.133c0-12.8,3.413-24.747,11.947-29.867
			c-2.56-2.56-5.973-4.267-11.947-4.267c-18.773,0-25.6,15.36-25.6,34.133V270.36C173.201,274.627,176.614,278.893,180.027,283.16"
			/>
	</g>
	<path style="fill:#FFA800;" d="M408.721,186.733c-4.267,0-8.533,0.853-12.8,2.56c12.8,5.12,21.333,17.067,21.333,31.573V357.4
		c0,29.867-9.387,51.2-17.067,59.733c-5.12,5.973-8.533,17.067-10.24,24.747c-7.68,32.427-41.813,60.587-75.093,60.587h25.6
		c33.28,0,67.413-28.16,75.093-60.587c1.707-7.68,5.12-18.773,10.24-24.747c7.68-8.533,17.067-29.867,17.067-59.733V220.867
		C442.854,202.093,427.494,186.733,408.721,186.733"/>
	<path style="fill:#FFE100;" d="M434.321,186.733c-4.267,0-8.533,0.853-12.8,2.56c12.8,5.12,21.333,17.067,21.333,31.573V357.4
		c0,29.867-9.387,51.2-17.067,59.733c-5.12,5.973-8.533,17.067-10.24,24.747c-7.68,32.427-41.813,60.587-75.093,60.587h25.6
		c33.28,0,67.413-28.16,75.093-60.587c1.707-7.68,5.12-18.773,10.24-24.747c7.68-8.533,17.067-29.867,17.067-59.733V220.867
		C468.454,202.093,453.094,186.733,434.321,186.733"/>
	<path d="M178.321,289.133c-3.413,0-5.973-1.707-7.68-5.12l-8.533-17.067c-1.707-4.267,0-9.387,3.413-11.093
		c4.267-1.707,9.387,0,11.093,3.413l8.533,17.067c1.707,4.267,0,9.387-3.413,11.093
		C180.881,289.133,180.027,289.133,178.321,289.133z"/>
	<path d="M238.054,280.6c-5.12,0-8.533-3.413-8.533-8.533V178.2c0-5.12,3.413-8.533,8.533-8.533c5.12,0,8.533,3.413,8.533,8.533
		v93.867C246.587,277.187,243.174,280.6,238.054,280.6z"/>
	<path d="M306.321,272.067c-5.12,0-8.533-3.413-8.533-8.533V178.2c0-5.12,3.413-8.533,8.533-8.533c5.12,0,8.533,3.413,8.533,8.533
		v85.333C314.854,268.653,311.441,272.067,306.321,272.067z"/>
	<path d="M374.587,280.6c-5.12,0-8.533-3.413-8.533-8.533v-51.2c0-5.12,3.413-8.533,8.533-8.533s8.533,3.413,8.533,8.533v51.2
		C383.121,277.187,379.707,280.6,374.587,280.6z"/>
	<path d="M391.654,442.733c-3.413,0-6.827-2.56-8.533-5.973c-0.853-4.267,1.707-9.387,5.973-10.24
		c20.48-5.12,24.747-7.68,29.867-15.36c2.56-3.413,8.533-4.267,11.947-1.707c3.413,2.56,4.267,8.533,1.707,11.947
		c-9.387,12.8-17.92,15.36-39.253,21.333C393.361,442.733,392.507,442.733,391.654,442.733z"/>
	<path d="M212.454,434.2c-1.707,0-3.413-0.853-5.12-1.707c-5.12-4.267-9.387-6.827-14.507-11.093
		c-6.827-4.267-12.8-9.387-19.627-15.36c-3.413-3.413-3.413-8.533-0.853-11.947c3.413-3.413,8.533-3.413,11.947-0.853
		c5.973,5.12,11.947,9.387,17.92,13.653c5.12,3.413,10.24,6.827,15.36,11.947c3.413,3.413,4.267,8.533,0.853,11.947
		C217.574,433.347,215.014,434.2,212.454,434.2z"/>
	<path d="M340.454,511h-85.333c-46.933,0-85.333-38.4-85.333-85.333V403.48c-25.6-28.16-48.64-65.707-50.347-67.413
		c-19.627-35.84-51.2-71.68-65.707-88.747c-11.947-13.653-12.8-14.507-11.947-19.627c0-3.413-0.853-14.507,11.947-23.04
		c4.267-2.56,7.68-5.12,11.947-5.973c33.28-11.947,76.8,4.267,95.573,36.693v-74.24c0-23.893,18.773-42.667,42.667-42.667
		c9.387,0,18.773,3.413,25.6,8.533v-8.533c0-5.12,3.413-8.533,8.533-8.533c5.12,0,8.533,3.413,8.533,8.533V178.2
		c0,5.12-3.413,8.533-8.533,8.533c-5.12,0-8.533-3.413-8.533-8.533v-17.067c0-14.507-11.093-25.6-25.6-25.6
		c-14.507,0-25.6,11.093-25.6,25.6v102.4c0,3.413-2.56,6.827-5.973,8.533c-3.413,0.853-7.68,0-9.387-3.413l-15.36-23.04
		c-16.213-28.16-52.907-38.4-75.093-30.72c-2.56,0.853-5.12,2.56-8.533,4.267c-5.12,3.413-5.12,5.12-5.12,7.68
		c1.707,1.707,5.12,5.973,7.68,9.387c15.36,17.92,47.787,54.613,68.267,91.307c0,0,24.747,40.107,50.347,66.56
		c1.707,1.707,2.56,3.413,2.56,5.973v25.6c0,37.547,30.72,68.267,68.267,68.267h85.333c29.013,0,60.587-24.747,66.56-53.76
		c2.56-12.8,6.827-23.04,11.947-29.013c5.12-5.973,15.36-24.747,15.36-53.76V220.867c0-14.507-11.093-25.6-25.6-25.6
		c-14.507,0-25.6,11.093-25.6,25.6c0,5.12-3.413,8.533-8.533,8.533c-5.12,0-8.533-3.413-8.533-8.533V178.2
		c0-14.507-11.093-25.6-25.6-25.6c-14.507,0-25.6,11.093-25.6,25.6c0,5.12-3.413,8.533-8.533,8.533s-8.533-3.413-8.533-8.533l0,0
		V41.667c0-14.507-11.093-25.6-25.6-25.6s-25.6,11.093-25.6,25.6V50.2c0,5.12-3.413,8.533-8.533,8.533
		c-5.12,0-8.533-3.413-8.533-8.533v-8.533C230.374,17.773,249.147-1,273.041-1s42.667,18.773,42.667,42.667v102.4
		c6.827-5.12,16.213-8.533,25.6-8.533c23.893,0,42.667,18.773,42.667,42.667v8.533c6.827-5.12,16.213-8.533,25.6-8.533
		c23.893,0,42.667,18.773,42.667,42.667V357.4c0,31.573-10.24,55.467-18.773,65.707c-3.413,3.413-5.973,11.093-8.533,21.333
		C415.547,480.28,377.147,511,340.454,511z"/>
	<path d="M246.587,84.333c0-5.12-3.413-8.533-8.533-8.533c-5.12,0-8.533,3.413-8.533,8.533s3.413,8.533,8.533,8.533
		C243.174,92.867,246.587,89.453,246.587,84.333"/>
</g>
<g>
</g>
<g>
</g>
<g>
</g>
<g>
</g>
<g>
</g>
<g>
</g>
<g>
</g>
<g>
</g>
<g>
</g>
<g>
</g>
<g>
</g>
<g>
</g>
<g>
</g>
<g>
</g>
<g>
</g>
</svg>
